<svg width="12" height="20" viewBox="0 0 12 20" fill="none" xmlns="http://www.w3.org/2000/svg">
<path fill-rule="evenodd" clip-rule="evenodd" d="M2.10673e-07 2.33333L7.45946 10L2.78247e-08 17.6667L2.27027 20L12 10L2.27027 2.70727e-08L2.10673e-07 2.33333Z" fill="black"/>
</svg>
