<svg width="51" height="51" viewBox="0 0 51 51" fill="none" xmlns="http://www.w3.org/2000/svg">
<g clip-path="url(#clip0)">
<path d="M25.5905 15.2345C17.4881 15.2345 12.6349 13.6474 12.4325 13.5797L11.8809 13.3966V6.36353H13.4938V12.2111C14.9639 12.6119 19.293 13.6216 25.5905 13.6216C31.8881 13.6216 36.2171 12.6119 37.6873 12.2111V6.36353H39.3002V13.3966L38.7486 13.5797C38.5462 13.6474 33.693 15.2345 25.5905 15.2345Z" fill="white"/>
<path d="M8.6549 2.33129V5.55709H42.5275L42.5259 2.33129H8.6549ZM42.5259 7.17H8.6549C7.76538 7.17 7.04199 6.44661 7.04199 5.55709V2.33129C7.04199 1.44177 7.76538 0.718384 8.6549 0.718384H42.5259C43.4146 0.718384 44.1388 1.44177 44.1388 2.33129V5.55709C44.1388 6.44661 43.4146 7.17 42.5259 7.17Z" fill="white"/>
<path d="M42.526 12.8151H40.9131V6.36353H42.526V12.8151Z" fill="white"/>
<path d="M41.7201 13.6901C41.3742 14.0764 40.9137 15.3748 40.9137 16.0409C40.9137 16.4861 41.275 16.8474 41.7201 16.8474C42.1653 16.8474 42.5266 16.4861 42.5266 16.0409C42.5266 15.3748 42.0661 14.0764 41.7201 13.6901ZM41.7201 18.4603C40.3863 18.4603 39.3008 17.3748 39.3008 16.0409C39.3008 15.1022 40.0556 12.0087 41.7201 12.0087C43.3847 12.0087 44.1395 15.1022 44.1395 16.0409C44.1395 17.3748 43.054 18.4603 41.7201 18.4603Z" fill="white"/>
<path d="M25.5908 50.7184C23.6432 50.7184 22.0142 49.3305 21.64 47.4926H3.01018C1.6763 47.4926 0.59082 46.4071 0.59082 45.0732V20.0732H4.62308V21.6861H2.20372V45.0732C2.20372 45.5184 2.56501 45.8797 3.01018 45.8797H23.1715V46.6861C23.1715 48.02 24.257 49.1055 25.5908 49.1055C26.9247 49.1055 28.0102 48.02 28.0102 46.6861V45.8797H48.1715C48.6166 45.8797 48.9779 45.5184 48.9779 45.0732V21.6861H45.7521V16.8474H43.3328V15.2345H47.365V20.0732H50.5908V45.0732C50.5908 46.4071 49.5053 47.4926 48.1715 47.4926H29.5416C29.1674 49.3305 27.5384 50.7184 25.5908 50.7184Z" fill="white"/>
<path d="M47.3648 44.2668H3.81641V15.2345H15.518V16.8474H5.42931V42.6539H45.7519V23.299H47.3648V44.2668Z" fill="white"/>
<path d="M26.3971 43.4603H24.7842V37.0087H26.3971V43.4603Z" fill="white"/>
<path d="M33.295 34.5627L32.3765 33.6441C31.1208 32.3885 30.4297 30.7199 30.4297 28.9441C30.4297 27.1683 31.1208 25.4998 32.3765 24.2441L33.2676 23.3522C33.5144 23.1062 33.6547 22.7651 33.6547 22.4167V21.7361C33.6547 21.128 33.2426 20.5998 32.6531 20.4522C31.3442 20.1248 30.4297 18.9538 30.4297 17.6038V13.8812H32.0426V17.6038C32.0426 18.2119 32.4547 18.7401 33.0442 18.8877C34.3539 19.2151 35.2684 20.3861 35.2684 21.7361V22.4167C35.2684 23.2014 34.9627 23.9385 34.4087 24.4925L33.5168 25.3845C32.566 26.3353 32.0426 27.5998 32.0426 28.9441C32.0426 30.2885 32.566 31.553 33.5168 32.5038L34.4353 33.4224L33.295 34.5627Z" fill="white"/>
<path d="M25.5688 37.8167C22.1873 37.8167 18.9954 36.603 16.447 34.3208C13.5454 31.7216 11.8809 27.9982 11.8809 24.1055C11.8809 19.8216 13.8284 15.8619 17.2252 13.2434L18.2099 14.5208C15.2131 16.8313 13.4938 20.3256 13.4938 24.1055C13.4938 27.5409 14.9623 30.8256 17.5228 33.1192C20.118 35.4442 23.4688 36.5119 26.9712 36.1256C32.5559 35.5095 37.0341 31.0038 37.6188 25.4119C38.0615 21.178 36.3244 17.1063 32.9712 14.52L33.9559 13.2426C37.7551 16.1732 39.7236 20.7853 39.222 25.5805C38.5599 31.92 33.4817 37.0288 27.147 37.7297C26.618 37.7877 26.0905 37.8167 25.5688 37.8167Z" fill="white"/>
<path d="M28.9767 36.6563C27.8001 34.0337 27.2041 31.2547 27.2041 28.399V27.5878C27.2041 26.67 26.7654 25.7926 26.0307 25.241C25.1928 24.6136 24.0735 24.4805 23.1154 24.8926C20.5872 25.9757 17.9106 26.5248 15.1598 26.5248H12.7969V24.9119H15.1598C17.6912 24.9119 20.1525 24.4063 22.4791 23.4103C23.9695 22.7708 25.7009 22.9797 26.9985 23.9515C28.1372 24.8047 28.817 26.1652 28.817 27.5878V28.399C28.817 31.0257 29.3662 33.5821 30.4477 35.9966L28.9767 36.6563Z" fill="white"/>
<path d="M17.6855 23.299H16.0726C14.8081 23.299 13.5734 22.9361 12.5049 22.2482L13.3775 20.8926C14.1855 21.4111 15.1178 21.6861 16.0726 21.6861H17.6855C18.3259 21.6861 18.9194 21.3676 19.275 20.8353C19.9299 19.8538 21.0259 19.2667 22.2065 19.2667C24.9621 19.2667 27.2041 17.0248 27.2041 14.2692H28.817C28.817 17.9135 25.8509 20.8796 22.2065 20.8796C21.5662 20.8796 20.9726 21.1982 20.617 21.7305C19.9621 22.7119 18.8662 23.299 17.6855 23.299Z" fill="white"/>
<path d="M19.1393 29.7506H17.5264V28.1377H19.1393V29.7506Z" fill="white"/>
<path d="M24.7848 28.1377H23.1719V26.5248H24.7848V28.1377Z" fill="white"/>
<path d="M25.5904 33.7829H23.9775V32.17H25.5904V33.7829Z" fill="white"/>
<path d="M16.7194 37.8152H7.04199V36.2023H16.7194V37.8152Z" fill="white"/>
<path d="M11.8807 34.5893H7.04199V32.9764H11.8807V34.5893Z" fill="white"/>
<path d="M10.2678 31.3635H7.04199V29.7506H10.2678V31.3635Z" fill="white"/>
<path d="M10.2678 28.1377H7.04199V26.5248H10.2678V28.1377Z" fill="white"/>
<path d="M12.6872 24.9119H7.04199V18.4603H13.6275V20.0732H8.6549V23.299H12.6872V24.9119Z" fill="white"/>
<path d="M44.1393 37.8152H34.4619V36.2023H44.1393V37.8152Z" fill="white"/>
<path d="M44.1395 34.5893H39.3008V32.9764H44.1395V34.5893Z" fill="white"/>
<path d="M44.1389 31.3635H40.9131V29.7506H44.1389V31.3635Z" fill="white"/>
<path d="M44.1389 28.1377H40.9131V26.5248H44.1389V28.1377Z" fill="white"/>
<path d="M44.1389 24.912H40.9131V23.2991H44.1389V24.912Z" fill="white"/>
<path d="M44.1389 21.6861H40.9131V20.0732H44.1389V21.6861Z" fill="white"/>
</g>
<defs>
<clipPath id="clip0">
<rect width="50" height="50" fill="white" transform="translate(0.59082 0.718384)"/>
</clipPath>
</defs>
</svg>
