<svg width="51" height="51" viewBox="0 0 51 51" fill="none" xmlns="http://www.w3.org/2000/svg">
<g clip-path="url(#clip0)">
<path d="M44.3653 50.7183H7.47559V39.1377C7.47559 35.6482 9.95121 32.6474 13.3627 32.0038L20.3068 30.6941V28.1377H21.9107V32.0329L13.6586 33.5885C11.005 34.0893 9.07949 36.4232 9.07949 39.1377V49.1054H42.7614V39.1377C42.7614 36.4232 40.8359 34.0893 38.1823 33.5885L29.9302 32.0329V28.1377H31.5341V30.6941L38.4782 32.0038C41.8897 32.6474 44.3653 35.6482 44.3653 39.1377V50.7183Z" fill="white"/>
<path d="M25.456 34.7378L19.8428 38.7704L20.7747 40.0822L26.3879 36.0496L25.456 34.7378Z" fill="white"/>
<path d="M21.6221 30.745L20.5947 31.9846L25.4061 36.0168L26.4335 34.7772L21.6221 30.745Z" fill="white"/>
<path d="M30.2177 30.7452L25.4062 34.7775L26.4336 36.0171L31.245 31.9849L30.2177 30.7452Z" fill="white"/>
<path d="M20.2986 31.2604L18.709 31.4689L21.1141 50.0174L22.7038 49.8089L20.2986 31.2604Z" fill="white"/>
<path d="M26.3839 34.7401L25.4521 36.0519L31.0654 40.0837L31.9971 38.772L26.3839 34.7401Z" fill="white"/>
<path d="M31.5373 31.2628L29.1377 49.8113L30.7273 50.0192L33.1269 31.4707L31.5373 31.2628Z" fill="white"/>
<path d="M28.0202 41.8475H23.8212L21.9951 38.1757L23.4298 37.4547L24.8124 40.2345H27.029L28.4107 37.4547L29.8454 38.1757L28.0202 41.8475Z" fill="white"/>
<path d="M28.3146 40.8976L26.7373 41.186L28.3413 50.057L29.9186 49.7686L28.3146 40.8976Z" fill="white"/>
<path d="M23.5279 40.8967L21.9248 49.7677L23.5021 50.0559L25.1052 41.185L23.5279 40.8967Z" fill="white"/>
<path d="M17.9014 23.299C15.6904 23.299 13.8916 21.4901 13.8916 19.2668C13.8916 17.0434 15.6904 15.2345 17.9014 15.2345V16.8474C16.5749 16.8474 15.4955 17.9329 15.4955 19.2668C15.4955 20.6006 16.5749 21.6861 17.9014 21.6861V23.299Z" fill="white"/>
<path d="M33.9404 23.299V21.6861C35.2669 21.6861 36.3463 20.6006 36.3463 19.2668C36.3463 17.9329 35.2669 16.8474 33.9404 16.8474V15.2345C36.1514 15.2345 37.9502 17.0434 37.9502 19.2668C37.9502 21.4901 36.1514 23.299 33.9404 23.299Z" fill="white"/>
<path d="M25.9207 26.5249C24.1516 26.5249 22.7129 25.0781 22.7129 23.2991H24.3168C24.3168 24.1886 25.0361 24.912 25.9207 24.912C26.8044 24.912 27.5246 24.1886 27.5246 23.2991H29.1285C29.1285 25.0781 27.6898 26.5249 25.9207 26.5249Z" fill="white"/>
<path d="M29.9309 18.4604C30.3738 18.4604 30.7328 18.0994 30.7328 17.654C30.7328 17.2086 30.3738 16.8475 29.9309 16.8475C29.488 16.8475 29.1289 17.2086 29.1289 17.654C29.1289 18.0994 29.488 18.4604 29.9309 18.4604Z" fill="white"/>
<path d="M21.9113 18.4604C22.3542 18.4604 22.7133 18.0994 22.7133 17.654C22.7133 17.2086 22.3542 16.8475 21.9113 16.8475C21.4684 16.8475 21.1094 17.2086 21.1094 17.654C21.1094 18.0994 21.4684 18.4604 21.9113 18.4604Z" fill="white"/>
<path d="M25.9211 30.5571C21.0572 30.5571 17.0996 26.5773 17.0996 21.6861V13.9297L21.1671 11.8845L21.9578 12.4152C24.314 13.9934 27.5274 13.9934 29.8835 12.4152L30.6742 11.8845L34.7417 13.9297V21.6861C34.7425 26.5773 30.7849 30.5571 25.9211 30.5571ZM18.7035 14.9265V21.6861C18.7035 25.6886 21.941 28.9442 25.9211 28.9442C29.9011 28.9442 33.1386 25.6886 33.1386 21.6861V14.9265L30.7905 13.7458L30.7737 13.7571C27.8899 15.6902 23.9523 15.6902 21.0685 13.7571L21.0516 13.7458L18.7035 14.9265Z" fill="white"/>
<path d="M20.855 42.612L15.6127 40.8555L13.9102 33.1515L15.4764 32.8015L16.9816 39.6136L21.3627 41.083L20.855 42.612Z" fill="white"/>
<path d="M18.7535 50.1957L16.2041 43.3562L18.0358 40.5933L19.3702 41.4884L17.9941 43.5642L20.2556 49.6279L18.7535 50.1957Z" fill="white"/>
<path d="M30.9862 42.612L30.4785 41.083L34.8596 39.6136L36.3648 32.8015L37.931 33.1515L36.2285 40.8555L30.9862 42.612Z" fill="white"/>
<path d="M33.087 50.1957L31.585 49.6279L33.8473 43.5642L32.4711 41.4884L33.8056 40.5933L35.6372 43.3562L33.087 50.1957Z" fill="white"/>
<path d="M37.9501 19.2668H36.3462V12.8152C36.3462 7.03451 31.6692 2.33129 25.9209 2.33129C20.1725 2.33129 15.4955 7.03451 15.4955 12.8152V19.2668H13.8916V12.8152C13.8916 6.145 19.2871 0.718384 25.9209 0.718384C32.5538 0.718384 37.9501 6.14419 37.9501 12.8152V19.2668Z" fill="white"/>
<path d="M42.7621 29.7505H41.1582V31.3634H42.7621V29.7505Z" fill="white"/>
<path d="M47.5735 47.4924H45.9696V7.16983H47.4339L44.3657 3.56983L41.2974 7.16983H42.7618V28.1376H41.1579V8.78273H37.8105L44.3657 1.09241L50.9208 8.78273H47.5735V47.4924Z" fill="white"/>
<path d="M47.5736 49.1055H45.9697V50.7184H47.5736V49.1055Z" fill="white"/>
<path d="M10.684 29.7505H9.08008V31.3634H10.684V29.7505Z" fill="white"/>
<path d="M5.87214 47.4924H4.26824V8.78273H0.920898L7.47604 1.09241L14.0312 8.78273H10.6838V28.1376H9.07994V7.16983H10.5443L7.47604 3.56983L4.40778 7.16983H5.87214V47.4924Z" fill="white"/>
<path d="M5.87245 49.1055H4.26855V50.7184H5.87245V49.1055Z" fill="white"/>
</g>
<defs>
<clipPath id="clip0">
<rect width="50" height="50" fill="white" transform="translate(0.920898 0.718384)"/>
</clipPath>
</defs>
</svg>
