<svg width="48" height="16" viewBox="0 0 48 16" fill="none" xmlns="http://www.w3.org/2000/svg">
<path d="M47.7071 8.70711C48.0976 8.31658 48.0976 7.68342 47.7071 7.29289L41.3431 0.928932C40.9526 0.538407 40.3195 0.538407 39.9289 0.928932C39.5384 1.31946 39.5384 1.95262 39.9289 2.34315L45.5858 8L39.9289 13.6569C39.5384 14.0474 39.5384 14.6805 39.9289 15.0711C40.3195 15.4616 40.9526 15.4616 41.3431 15.0711L47.7071 8.70711ZM47 7L44.0625 7L44.0625 9L47 9L47 7ZM38.1875 7L32.3125 7L32.3125 9L38.1875 9L38.1875 7ZM26.4375 7L20.5625 7L20.5625 9L26.4375 9L26.4375 7ZM14.6875 7L8.8125 7L8.8125 9L14.6875 9L14.6875 7ZM2.9375 7L8.74228e-08 7L-8.74228e-08 9L2.9375 9L2.9375 7Z" fill="#241970"/>
</svg>
