<svg width="16" height="25" viewBox="0 0 16 25" fill="none" xmlns="http://www.w3.org/2000/svg">
<path fill-rule="evenodd" clip-rule="evenodd" d="M15.1411 21.9089L12.2766 24.7735L-9.04795e-05 12.4968L12.2766 0.220163L15.1411 3.08471L5.72901 12.4968L15.1411 21.9089Z" fill="#E64E6C"/>
</svg>
