<svg width="172" height="170" viewBox="0 0 172 170" fill="none" xmlns="http://www.w3.org/2000/svg">
<g opacity="0.06">
<path d="M52.0014 141.626C42.5464 141.626 36.0015 133.859 36.0015 124.281V118.498C36.0015 108.915 42.5464 101.148 52.0014 101.148C61.4564 101.148 68.0013 108.915 68.0013 118.493V124.276C68.0013 133.859 61.4564 141.626 52.0014 141.626Z" stroke="#E64E6C" stroke-width="8" stroke-miterlimit="10"/>
<path d="M15.999 190.2L23.999 157.818C26.414 147.698 31.199 141.626 39.9989 141.626H47.9989L75.9238 174.009H99.9237C99.9237 174.009 101.714 190.2 87.9238 190.2C79.8838 190.2 63.9988 190.2 63.9988 190.2L43.9989 169.961" stroke="#E64E6C" stroke-width="8" stroke-miterlimit="10" stroke-linecap="round"/>
<path d="M81.4106 162.184L96.0006 137.579H168L144 178.057H108.001" stroke="#E64E6C" stroke-width="8" stroke-miterlimit="10" stroke-linejoin="round"/>
<path d="M75.9997 97.1H87.9997V118.71C87.9997 122.449 92.5797 124.19 95.0097 121.377L116 97.1H155.999C160.419 97.1 163.999 93.4772 163.999 89.0043V12.0855C163.999 7.61774 160.424 4 156.009 4H11.99C7.57499 4 4 7.61774 4 12.0855V89.0043C4 93.4772 7.57999 97.1 12 97.1H27.9999" stroke="#E64E6C" stroke-width="8" stroke-miterlimit="10" stroke-linecap="round" stroke-linejoin="round"/>
</g>
</svg>
