<svg width="84" height="77" viewBox="0 0 84 77" fill="none" xmlns="http://www.w3.org/2000/svg">
<path d="M74.6457 6.39941H12.354V47.5622H74.6457V6.39941Z" stroke="#E64E6C" stroke-width="3" stroke-miterlimit="10" stroke-linejoin="round"/>
<path d="M11 57.167H20.4792" stroke="#E64E6C" stroke-width="3" stroke-miterlimit="10" stroke-linejoin="round"/>
<path d="M36.729 57.167H75.9998" stroke="#E64E6C" stroke-width="3" stroke-miterlimit="10" stroke-linejoin="round"/>
<path d="M28.6042 62.6555C31.5957 62.6555 34.0208 60.1982 34.0208 57.1671C34.0208 54.1359 31.5957 51.6787 28.6042 51.6787C25.6126 51.6787 23.1875 54.1359 23.1875 57.1671C23.1875 60.1982 25.6126 62.6555 28.6042 62.6555Z" stroke="#E64E6C" stroke-width="3" stroke-miterlimit="10" stroke-linejoin="round"/>
<path d="M23.8646 31.0969C26.5729 31.0969 28.6042 29.0387 28.6042 26.1573V24.9224C28.6042 22.0411 26.5729 19.9829 23.8646 19.9829C21.1563 19.9829 19.125 22.0411 19.125 24.9224V26.1573C19.125 29.0387 21.1563 31.0969 23.8646 31.0969Z" stroke="#E64E6C" stroke-width="3" stroke-miterlimit="10" stroke-linejoin="round"/>
<path d="M29.9585 47.5623V40.7018C29.9585 40.7018 35.9168 37.8204 38.0835 36.5856C40.9272 34.6646 40.7918 31.3716 40.7918 29.7251C40.7918 29.7251 34.021 32.1949 30.3647 33.8414C28.3335 34.8018 26.0314 35.2135 23.7293 35.2135C22.9168 35.2135 22.1043 35.2135 21.8335 35.2135C18.9897 35.2135 16.8231 35.6251 15.3335 36.5856" stroke="#E64E6C" stroke-width="3" stroke-miterlimit="10" stroke-linejoin="round"/>
<path d="M44.8542 30.5481L52.9792 25.6085L39.4375 17.376V25.6085" stroke="#E64E6C" stroke-width="3" stroke-miterlimit="10" stroke-linejoin="round"/>
</svg>
